<svg width="134" height="60" viewBox="0 0 134 60" fill="none" xmlns="http://www.w3.org/2000/svg">
<path fill-rule="evenodd" clip-rule="evenodd" d="M33.9786 21.9214C34.4191 21.9214 34.7762 21.5643 34.7762 21.1238C34.7762 20.6833 34.4191 20.3262 33.9786 20.3262C33.5381 20.3262 33.181 20.6833 33.181 21.1238C33.181 21.5643 33.5381 21.9214 33.9786 21.9214Z" fill="white"/>
<path fill-rule="evenodd" clip-rule="evenodd" d="M13.7191 28.1428L18.6643 24.1547C19.6215 21.2833 20.7381 18.4119 21.8548 16.019C22.4929 17.2952 22.9715 18.5714 23.45 20.0071C26.1619 17.7738 27.7572 16.4976 29.9905 15.8595C29.4421 14.7018 28.9635 13.6837 28.5548 12.8141C27.8934 11.4072 27.4148 10.3891 27.1191 9.79761H16.2715C15.3143 11.7119 11.8048 18.8905 7.81669 28.7809H11.8048C12.6024 28.7809 13.2405 28.6214 13.7191 28.1428ZM0.638123 50.1571H10.3691L13.7191 39.9476H4.30717C3.03098 42.9786 1.75479 46.3286 0.638123 50.1571ZM33.3405 50.3167L29.831 40.5857C33.5 38.8309 35.0953 37.0762 36.85 33.7262C38.7643 38.8309 40.8381 44.4143 42.9119 50.3167H33.3405ZM34.2976 34.6833C37.3286 29.7381 38.4453 21.9214 38.4453 21.9214L37.3286 21.4428C37.1691 21.4428 37.1691 21.2833 37.3286 21.1238L38.1262 20.0071C37.4881 18.8905 35.5738 17.1357 32.7024 17.1357C30.9476 17.1357 29.5119 17.6143 28.2357 18.4119C28.2357 18.4119 26.3215 19.6881 23.45 22.2405C20.2596 25.1119 15.7929 29.419 11.8048 34.8428C11.6453 35.0024 11.8048 35.1619 11.9643 35.1619H17.0691C20.4191 35.1619 24.8857 34.5238 29.3524 29.7381C29.5119 29.5786 29.5119 29.5786 29.6715 29.7381C29.831 29.7381 29.831 29.8976 29.6715 30.0571C29.0334 31.8119 27.1191 35.3214 23.9286 37.3952H28.3953C31.2667 37.3952 33.5 36.119 34.2976 34.6833ZM32.0643 20.4857C31.4262 21.2833 31.4262 22.4 32.0643 23.0381C32.7024 23.6762 33.8191 23.6762 34.6167 23.0381C35.2548 22.2405 35.2548 21.1238 34.6167 20.4857C33.8191 19.8476 32.7024 19.8476 32.0643 20.4857Z" fill="#E2231A"/>
<path fill-rule="evenodd" clip-rule="evenodd" d="M38.1262 20.0071H41.6357C41.9548 20.0071 41.9548 20.3261 41.7953 20.3261L38.4453 21.9214L37.3286 21.4428C37.1691 21.4428 37.1691 21.2833 37.3286 21.1237L38.1262 20.0071ZM33.5 21.7618C33.8191 22.0809 34.2976 22.0809 34.6167 21.7618C34.8158 21.5627 34.8906 21.2393 34.8412 20.9856C35.243 21.7371 35.1682 22.6461 34.6167 23.1976C33.8191 23.8357 32.7024 23.8357 32.0643 23.1976C31.4262 22.3999 31.4262 21.2833 32.0643 20.6452C32.8619 20.0071 33.9786 20.0071 34.6167 20.6452C34.2976 20.3261 33.8191 20.3261 33.5 20.6452C33.181 20.9642 33.181 21.4428 33.5 21.7618ZM34.8412 20.9856C34.8115 20.8327 34.7366 20.7051 34.6167 20.6452C34.7033 20.7534 34.7781 20.8676 34.8412 20.9856ZM29.0334 30.8547C29.2771 30.611 29.4277 30.2741 29.5564 29.9865C29.5961 29.8976 29.6338 29.8133 29.6714 29.738H29.3524C24.7262 34.5237 20.4191 35.1618 17.0691 35.1618H11.9643C11.8048 35.1618 11.6453 35.0023 11.8048 34.8428C15.7929 29.2595 20.2595 24.9523 23.45 22.2404L14.8357 29.419C14.1976 30.0571 13.4 30.3761 12.2834 30.3761H1.43573C1.192 30.3761 1.22756 30.5623 1.25793 30.7213L1.25793 30.7214C1.26732 30.7705 1.27621 30.817 1.27621 30.8547C2.07383 33.2476 4.14764 35.3214 7.65716 35.3214L5.10478 37.8737C4.94526 38.0333 4.94526 38.1928 5.2643 38.1928H14.9953C21.8548 38.1928 26.1619 35.1618 29.0334 30.8547ZM26.0024 41.7023L29.0334 50.3166H31.2667L28.0762 41.3833C27.5476 41.3833 27.019 41.4928 26.3996 41.621C26.2714 41.6476 26.1392 41.6749 26.0024 41.7023ZM28.3953 37.3952H23.9286C22.8119 38.0333 22.4929 38.1928 20.8976 38.8309C20.7381 38.8309 20.7381 38.9904 20.7381 39.1499L24.7262 50.1571H26.9595L23.2905 40.1071C25.5543 40.1071 30.6737 39.536 33.7859 35.2868C33.9935 35.0442 34.1653 34.7883 34.2976 34.5237C34.1342 34.7904 33.9633 35.0446 33.7859 35.2868C32.7416 36.5072 30.7904 37.3952 28.3953 37.3952Z" fill="#00945E"/>
<path fill-rule="evenodd" clip-rule="evenodd" d="M126.024 50.1571H134V25.75H126.024V34.6833H118.526V25.75H110.55V50.1571H118.526V40.9048H126.024V50.1571Z" fill="#E2231A"/>
<path fill-rule="evenodd" clip-rule="evenodd" d="M83.5905 38.8309C83.5905 29.8975 87.8976 25.1118 95.8738 25.1118C101.457 25.1118 104.488 25.9094 107.04 26.7071V50.1571H100.5L100.021 47.4452C98.5857 49.3594 96.1928 50.6356 92.5238 50.6356C86.6214 50.6356 83.5905 47.1261 83.5905 38.8309ZM95.2357 44.4142C97.15 44.4142 98.4262 43.4571 99.0643 42.6594V31.8118C98.8882 31.7867 98.7201 31.7615 98.5561 31.737C97.6802 31.606 96.9236 31.4928 95.7143 31.4928C93.1619 31.4928 91.8857 33.8856 91.8857 38.5118C91.8857 42.4999 93.1619 44.4142 95.2357 44.4142Z" fill="#E2231A"/>
<path fill-rule="evenodd" clip-rule="evenodd" d="M73.8596 47.4453L74.3381 50.1572H80.7191V25.5906H72.7429V42.6596C72.1048 43.4572 70.6691 44.4144 69.3929 44.4144C67.1595 44.4144 66.0429 43.1382 66.0429 40.9049V25.7501H58.0667V42.8191C57.4286 43.6168 55.8334 44.5739 54.5572 44.5739C52.4834 44.5739 51.3667 43.2977 51.3667 41.0644V25.9096H43.3905V42.1811C43.3905 48.0834 45.9429 50.9549 51.3667 50.9549C55.1953 50.9549 57.4286 49.5191 59.3429 47.6049C60.6191 49.8382 62.8524 50.9549 66.0429 50.9549C70.031 50.7953 72.1048 49.3596 73.8596 47.4453Z" fill="#E2231A"/>
</svg>
