<svg width="13" height="15" viewBox="0 0 13 15" fill="none" xmlns="http://www.w3.org/2000/svg">
<path fill-rule="evenodd" clip-rule="evenodd" d="M1.3 13.3203V3.75H11.7V13.3203C11.7 13.763 11.524 14.1536 11.1719 14.4922C10.8198 14.8307 10.4135 15 9.95312 15H3.04688C2.58646 15 2.18021 14.8307 1.82812 14.4922C1.47604 14.1536 1.3 13.763 1.3 13.3203ZM13 1.25V2.5H0V1.25H3.25L4.34688 0H8.65312L9.75 1.25H13Z" fill="#1E2432"/>
</svg>
